(kicad_pcb (version 4) (host pcbnew 4.0.5-e0-6337~52~ubuntu16.10.1)

  (general
    (links 16)
    (no_connects 0)
    (area 105.183995 101.563499 229.3818 133.078901)
    (thickness 1.6)
    (drawings 23)
    (tracks 59)
    (zones 0)
    (modules 4)
    (nets 17)
  )

  (page A4)
  (layers
    (0 F.Cu signal)
    (31 B.Cu signal)
    (32 B.Adhes user)
    (33 F.Adhes user)
    (34 B.Paste user)
    (35 F.Paste user)
    (36 B.SilkS user)
    (37 F.SilkS user)
    (38 B.Mask user)
    (39 F.Mask user)
    (40 Dwgs.User user)
    (41 Cmts.User user)
    (42 Eco1.User user)
    (43 Eco2.User user)
    (44 Edge.Cuts user)
    (45 Margin user)
    (46 B.CrtYd user)
    (47 F.CrtYd user)
    (48 B.Fab user)
    (49 F.Fab user)
  )

  (setup
    (last_trace_width 0.6)
    (trace_clearance 0.1)
    (zone_clearance 0.508)
    (zone_45_only no)
    (trace_min 0.2)
    (segment_width 0.2)
    (edge_width 0.15)
    (via_size 1)
    (via_drill 0.4)
    (via_min_size 0.4)
    (via_min_drill 0.3)
    (uvia_size 0.3)
    (uvia_drill 0.1)
    (uvias_allowed no)
    (uvia_min_size 0.2)
    (uvia_min_drill 0.1)
    (pcb_text_width 0.3)
    (pcb_text_size 1.5 1.5)
    (mod_edge_width 0.15)
    (mod_text_size 1 1)
    (mod_text_width 0.15)
    (pad_size 1.35 1.35)
    (pad_drill 0.8)
    (pad_to_mask_clearance 0.2)
    (aux_axis_origin 0 0)
    (visible_elements FFFFFF7F)
    (pcbplotparams
      (layerselection 0x00000_80000001)
      (usegerberextensions false)
      (excludeedgelayer false)
      (linewidth 0.100000)
      (plotframeref false)
      (viasonmask false)
      (mode 1)
      (useauxorigin false)
      (hpglpennumber 1)
      (hpglpenspeed 20)
      (hpglpendiameter 15)
      (hpglpenoverlay 2)
      (psnegative false)
      (psa4output false)
      (plotreference false)
      (plotvalue false)
      (plotinvisibletext false)
      (padsonsilk false)
      (subtractmaskfromsilk false)
      (outputformat 2)
      (mirror true)
      (drillshape 1)
      (scaleselection 1)
      (outputdirectory ps/))
  )

  (net 0 "")
  (net 1 /DAT2)
  (net 2 /CD/DATA3/CS)
  (net 3 /CMD/MOSI)
  (net 4 /VDD)
  (net 5 /CLK/SCK)
  (net 6 /GND)
  (net 7 /DAT0/MISO)
  (net 8 /DAT1/IRQ)
  (net 9 "Net-(CON2-PadDAT2)")
  (net 10 "Net-(CON2-PadDAT3)")
  (net 11 "Net-(CON2-PadCMD)")
  (net 12 "Net-(CON2-PadVDD)")
  (net 13 "Net-(CON2-PadCLK)")
  (net 14 "Net-(CON2-PadVSS)")
  (net 15 "Net-(CON2-PadDAT0)")
  (net 16 "Net-(CON2-PadDAT1)")

  (net_class Default "This is the default net class."
    (clearance 0.1)
    (trace_width 0.6)
    (via_dia 1)
    (via_drill 0.4)
    (uvia_dia 0.3)
    (uvia_drill 0.1)
    (add_net /CD/DATA3/CS)
    (add_net /CLK/SCK)
    (add_net /CMD/MOSI)
    (add_net /DAT0/MISO)
    (add_net /DAT1/IRQ)
    (add_net /DAT2)
    (add_net /GND)
    (add_net /VDD)
    (add_net "Net-(CON2-PadCLK)")
    (add_net "Net-(CON2-PadCMD)")
    (add_net "Net-(CON2-PadDAT0)")
    (add_net "Net-(CON2-PadDAT1)")
    (add_net "Net-(CON2-PadDAT2)")
    (add_net "Net-(CON2-PadDAT3)")
    (add_net "Net-(CON2-PadVDD)")
    (add_net "Net-(CON2-PadVSS)")
  )

  (module Pin_Header_Odroid (layer F.Cu) (tedit 5955A6ED) (tstamp 5955AD88)
    (at 164 124.7554)
    (descr "Through hole straight pin header, 2x04, 2.00mm pitch, double rows")
    (tags "Through hole pin header THT 2x04 2.00mm double row")
    (path /595582E8)
    (fp_text reference P2 (at -2.1766 6.9944 270) (layer F.SilkS)
      (effects (font (size 1 1) (thickness 0.15)))
    )
    (fp_text value IO_2 (at -2.25 0.25 270) (layer F.Fab)
      (effects (font (size 1 1) (thickness 0.15)))
    )
    (fp_line (start -1 -1.34) (end -1 7.94) (layer F.Fab) (width 0.1))
    (fp_line (start -1 7.94) (end 3 7.94) (layer F.Fab) (width 0.1))
    (fp_line (start 3 7.94) (end 3 -1.34) (layer F.Fab) (width 0.1))
    (fp_line (start 3 -1.34) (end -1 -1.34) (layer F.Fab) (width 0.1))
    (fp_line (start -1.06 0.5) (end -1.06 8) (layer F.SilkS) (width 0.12))
    (fp_line (start -1.06 8) (end 3.06 8) (layer F.SilkS) (width 0.12))
    (fp_line (start 3.06 8) (end 3.06 -1.4) (layer F.SilkS) (width 0.12))
    (fp_line (start 3.06 -1.4) (end 1 -1.4) (layer F.SilkS) (width 0.12))
    (fp_line (start 1 -1.4) (end 1 0.5) (layer F.SilkS) (width 0.12))
    (fp_line (start 1 0.5) (end -1.06 0.5) (layer F.SilkS) (width 0.12))
    (fp_line (start -1.06 -0.24) (end -1.06 -1.4) (layer F.SilkS) (width 0.12))
    (fp_line (start -1.06 -1.4) (end 0 -1.4) (layer F.SilkS) (width 0.12))
    (fp_line (start -1.5 -1.5) (end -1.5 8.1) (layer F.CrtYd) (width 0.05))
    (fp_line (start -1.5 8.1) (end 3.5 8.1) (layer F.CrtYd) (width 0.05))
    (fp_line (start 3.5 8.1) (end 3.5 -1.5) (layer F.CrtYd) (width 0.05))
    (fp_line (start 3.5 -1.5) (end -1.5 -1.5) (layer F.CrtYd) (width 0.05))
    (fp_text user %R (at -2.1766 6.9944 270) (layer F.Fab)
      (effects (font (size 1 1) (thickness 0.15)))
    )
    (pad 1 thru_hole rect (at 0 -0.5) (size 1.35 1.35) (drill 0.8) (layers *.Cu *.Mask)
      (net 9 "Net-(CON2-PadDAT2)"))
    (pad 2 thru_hole oval (at 2 -0.5) (size 1.35 1.35) (drill 0.8) (layers *.Cu *.Mask)
      (net 10 "Net-(CON2-PadDAT3)"))
    (pad 3 thru_hole oval (at 0 2) (size 1.35 1.35) (drill 0.8) (layers *.Cu *.Mask)
      (net 11 "Net-(CON2-PadCMD)"))
    (pad 4 thru_hole oval (at 2 2) (size 1.35 1.35) (drill 0.8) (layers *.Cu *.Mask)
      (net 12 "Net-(CON2-PadVDD)"))
    (pad 5 thru_hole oval (at 0 4.5) (size 1.35 1.35) (drill 0.8) (layers *.Cu *.Mask)
      (net 13 "Net-(CON2-PadCLK)"))
    (pad 6 thru_hole oval (at 2 4.5) (size 1.35 1.35) (drill 0.8) (layers *.Cu *.Mask)
      (net 14 "Net-(CON2-PadVSS)"))
    (pad 7 thru_hole oval (at 0 7) (size 1.35 1.35) (drill 0.8) (layers *.Cu *.Mask)
      (net 15 "Net-(CON2-PadDAT0)"))
    (pad 8 thru_hole oval (at 2 7) (size 1.35 1.35) (drill 0.8) (layers *.Cu *.Mask)
      (net 16 "Net-(CON2-PadDAT1)"))
    (model ${KISYS3DMOD}/Pin_Headers.3dshapes/Pin_Header_Straight_2x04_Pitch2.00mm.wrl
      (at (xyz 0 0 0))
      (scale (xyz 1 1 1))
      (rotate (xyz 0 0 0))
    )
  )

  (module kicadlib:micro-sdcard (layer B.Cu) (tedit 5955382A) (tstamp 59553677)
    (at 172.1358 102.5652 270)
    (path /59553ABF)
    (fp_text reference CON1 (at 0 0 360) (layer Cmts.User) hide
      (effects (font (size 0 0) (thickness 0.000001)))
    )
    (fp_text value micro-sdcard (at 0 0 360) (layer Eco1.User) hide
      (effects (font (size 0 0) (thickness 0.000001)))
    )
    (fp_line (start -0.8382 14.9987) (end -0.8382 9.59866) (layer B.SilkS) (width 0.127))
    (fp_line (start 0.15748 0) (end 10.16 0) (layer B.SilkS) (width 0.127))
    (fp_line (start 0.15748 4.99872) (end 0.15748 0) (layer B.SilkS) (width 0.127))
    (fp_line (start -0.8382 5.99948) (end 0.15748 4.99872) (layer B.SilkS) (width 0.127))
    (fp_line (start -0.8382 6.9977) (end -0.8382 5.99948) (layer B.SilkS) (width 0.127))
    (fp_line (start -0.43942 7.39902) (end -0.8382 6.9977) (layer B.SilkS) (width 0.127))
    (fp_line (start -0.43942 9.19988) (end -0.43942 7.39902) (layer B.SilkS) (width 0.127))
    (fp_line (start -0.8382 9.59866) (end -0.43942 9.19988) (layer B.SilkS) (width 0.127))
    (fp_line (start 10.16 14.9987) (end -0.8382 14.9987) (layer B.SilkS) (width 0.127))
    (fp_line (start 10.16 0) (end 10.16 14.9987) (layer B.SilkS) (width 0.127))
    (fp_text user Value (at 5.08 13.97 270) (layer B.SilkS)
      (effects (font (size 1.27 1.27) (thickness 0.1016)) (justify mirror))
    )
    (fp_text user sd (at 5.08 11.43 270) (layer B.SilkS)
      (effects (font (size 1.27 1.27) (thickness 0.1016)) (justify mirror))
    )
    (pad DAT2 smd rect (at 1.45796 2.2987 270) (size 0.84836 3.24866) (layers B.Cu B.Paste B.Mask)
      (net 1 /DAT2))
    (pad DAT3 smd rect (at 2.55778 2.2987 270) (size 0.84836 3.24866) (layers B.Cu B.Paste B.Mask)
      (net 2 /CD/DATA3/CS))
    (pad CMD smd rect (at 3.6576 2.2987 270) (size 0.84836 3.24866) (layers B.Cu B.Paste B.Mask)
      (net 3 /CMD/MOSI))
    (pad VDD smd rect (at 4.75996 2.09804 270) (size 0.84836 3.74904) (layers B.Cu B.Paste B.Mask)
      (net 4 /VDD))
    (pad CLK smd rect (at 5.85978 2.2987 270) (size 0.84836 3.24866) (layers B.Cu B.Paste B.Mask)
      (net 5 /CLK/SCK))
    (pad VSS smd rect (at 6.9596 2.09804 90) (size 0.84836 3.74904) (layers B.Cu B.Paste B.Mask)
      (net 6 /GND))
    (pad DAT0 smd rect (at 8.05942 2.2987 270) (size 0.84836 3.24866) (layers B.Cu B.Paste B.Mask)
      (net 7 /DAT0/MISO))
    (pad DAT1 smd rect (at 9.15924 2.2987 270) (size 0.84836 3.24866) (layers B.Cu B.Paste B.Mask)
      (net 8 /DAT1/IRQ))
  )

  (module Pin_Headers:Pin_Header_Straight_2x04 (layer F.Cu) (tedit 59559926) (tstamp 59553919)
    (at 161.5 103.5418)
    (descr "Through hole pin header")
    (tags "pin header")
    (path /59551A7D)
    (fp_text reference P1 (at -2.5468 -0.621 270) (layer F.SilkS)
      (effects (font (size 1 1) (thickness 0.15)))
    )
    (fp_text value IO_1 (at -2.5 7.25 270) (layer F.Fab)
      (effects (font (size 1 1) (thickness 0.15)))
    )
    (fp_line (start -1.55 -1.55) (end -1.55 0) (layer F.SilkS) (width 0.15))
    (fp_line (start 1.27 1.27) (end -1.27 1.27) (layer F.SilkS) (width 0.15))
    (fp_line (start 1.27 -1.27) (end 1.27 1.27) (layer F.SilkS) (width 0.15))
    (fp_line (start 0 -1.55) (end -1.55 -1.55) (layer F.SilkS) (width 0.15))
    (fp_line (start 3.81 -1.27) (end 1.27 -1.27) (layer F.SilkS) (width 0.15))
    (fp_line (start 3.81 8.89) (end 3.81 -1.27) (layer F.SilkS) (width 0.15))
    (fp_line (start -1.27 8.89) (end 3.81 8.89) (layer F.SilkS) (width 0.15))
    (fp_line (start -1.27 1.27) (end -1.27 8.89) (layer F.SilkS) (width 0.15))
    (fp_line (start -1.75 9.4) (end 4.3 9.4) (layer F.CrtYd) (width 0.05))
    (fp_line (start -1.75 -1.75) (end 4.3 -1.75) (layer F.CrtYd) (width 0.05))
    (fp_line (start 4.3 -1.75) (end 4.3 9.4) (layer F.CrtYd) (width 0.05))
    (fp_line (start -1.75 -1.75) (end -1.75 9.4) (layer F.CrtYd) (width 0.05))
    (pad 8 thru_hole oval (at 2.54 7.62) (size 2 1.7272) (drill 1.016) (layers *.Cu *.Mask)
      (net 8 /DAT1/IRQ))
    (pad 7 thru_hole oval (at 0 7.62) (size 2 1.7272) (drill 1.016) (layers *.Cu *.Mask)
      (net 7 /DAT0/MISO))
    (pad 6 thru_hole oval (at 2.54 5.08) (size 2 1.7272) (drill 1.016) (layers *.Cu *.Mask)
      (net 6 /GND))
    (pad 5 thru_hole oval (at 0 5.08) (size 2 1.7272) (drill 1.016) (layers *.Cu *.Mask)
      (net 5 /CLK/SCK))
    (pad 4 thru_hole oval (at 2.54 2.54) (size 2 1.7272) (drill 1.016) (layers *.Cu *.Mask)
      (net 4 /VDD))
    (pad 3 thru_hole oval (at 0 2.54) (size 2 1.7272) (drill 1.016) (layers *.Cu *.Mask)
      (net 3 /CMD/MOSI))
    (pad 2 thru_hole oval (at 2.54 0) (size 2 1.7272) (drill 1.016) (layers *.Cu *.Mask)
      (net 2 /CD/DATA3/CS))
    (pad 1 thru_hole rect (at 0 0) (size 2 1.7272) (drill 1.016) (layers *.Cu *.Mask)
      (net 1 /DAT2))
    (model Pin_Headers.3dshapes/Pin_Header_Straight_2x04.wrl
      (at (xyz 0.05 -0.15 0))
      (scale (xyz 1 1 1))
      (rotate (xyz 0 0 90))
    )
  )

  (module kicadlib:micro-sdcard (layer B.Cu) (tedit 5955987C) (tstamp 595598E0)
    (at 172.1358 122.7554 270)
    (path /595582FE)
    (fp_text reference CON2 (at 0 0 360) (layer Cmts.User) hide
      (effects (font (size 0 0) (thickness 0.000001)))
    )
    (fp_text value micro-sdcard (at 0 0 360) (layer Eco1.User) hide
      (effects (font (size 0 0) (thickness 0.000001)))
    )
    (fp_line (start -0.8382 14.9987) (end -0.8382 9.59866) (layer B.SilkS) (width 0.127))
    (fp_line (start 0.15748 0) (end 10.16 0) (layer B.SilkS) (width 0.127))
    (fp_line (start 0.15748 4.99872) (end 0.15748 0) (layer B.SilkS) (width 0.127))
    (fp_line (start -0.8382 5.99948) (end 0.15748 4.99872) (layer B.SilkS) (width 0.127))
    (fp_line (start -0.8382 6.9977) (end -0.8382 5.99948) (layer B.SilkS) (width 0.127))
    (fp_line (start -0.43942 7.39902) (end -0.8382 6.9977) (layer B.SilkS) (width 0.127))
    (fp_line (start -0.43942 9.19988) (end -0.43942 7.39902) (layer B.SilkS) (width 0.127))
    (fp_line (start -0.8382 9.59866) (end -0.43942 9.19988) (layer B.SilkS) (width 0.127))
    (fp_line (start 10.16 14.9987) (end -0.8382 14.9987) (layer B.SilkS) (width 0.127))
    (fp_line (start 10.16 0) (end 10.16 14.9987) (layer B.SilkS) (width 0.127))
    (fp_text user Value (at 5.08 13.97 270) (layer B.SilkS)
      (effects (font (size 1.27 1.27) (thickness 0.1016)) (justify mirror))
    )
    (fp_text user sd (at 5.08 11.43 270) (layer B.SilkS)
      (effects (font (size 1.27 1.27) (thickness 0.1016)) (justify mirror))
    )
    (pad DAT2 smd rect (at 1.45796 2.2987 270) (size 0.84836 3.24866) (layers B.Cu B.Paste B.Mask)
      (net 9 "Net-(CON2-PadDAT2)"))
    (pad DAT3 smd rect (at 2.55778 2.2987 270) (size 0.84836 3.24866) (layers B.Cu B.Paste B.Mask)
      (net 10 "Net-(CON2-PadDAT3)"))
    (pad CMD smd rect (at 3.6576 2.2987 270) (size 0.84836 3.24866) (layers B.Cu B.Paste B.Mask)
      (net 11 "Net-(CON2-PadCMD)"))
    (pad VDD smd rect (at 4.75996 2.09804 270) (size 0.84836 3.74904) (layers B.Cu B.Paste B.Mask)
      (net 12 "Net-(CON2-PadVDD)"))
    (pad CLK smd rect (at 5.85978 2.2987 270) (size 0.84836 3.24866) (layers B.Cu B.Paste B.Mask)
      (net 13 "Net-(CON2-PadCLK)"))
    (pad VSS smd rect (at 6.9596 2.09804 90) (size 0.84836 3.74904) (layers B.Cu B.Paste B.Mask)
      (net 14 "Net-(CON2-PadVSS)"))
    (pad DAT0 smd rect (at 8.05942 2.2987 270) (size 0.84836 3.24866) (layers B.Cu B.Paste B.Mask)
      (net 15 "Net-(CON2-PadDAT0)"))
    (pad DAT1 smd rect (at 9.15924 2.2987 270) (size 0.84836 3.24866) (layers B.Cu B.Paste B.Mask)
      (net 16 "Net-(CON2-PadDAT1)"))
  )

  (gr_line (start 157.1498 121.9406) (end 162.5346 121.9406) (angle 90) (layer Edge.Cuts) (width 0.15) (tstamp 59559984))
  (gr_line (start 162.5346 121.9406) (end 162.941 122.347) (angle 90) (layer Edge.Cuts) (width 0.15) (tstamp 59559983))
  (gr_line (start 162.941 122.347) (end 164.7444 122.347) (angle 90) (layer Edge.Cuts) (width 0.15) (tstamp 59559982))
  (gr_line (start 164.7444 122.347) (end 165.1508 121.9406) (angle 90) (layer Edge.Cuts) (width 0.15) (tstamp 59559981))
  (gr_line (start 165.1508 121.9406) (end 166.116 121.9406) (angle 90) (layer Edge.Cuts) (width 0.15) (tstamp 59559980))
  (gr_line (start 166.116 121.9406) (end 167.1066 122.9312) (angle 90) (layer Edge.Cuts) (width 0.15) (tstamp 5955997F))
  (gr_line (start 167.1066 122.9312) (end 172.1358 122.9312) (angle 90) (layer Edge.Cuts) (width 0.15) (tstamp 5955997E))
  (gr_line (start 172.1358 122.9312) (end 172.1358 132.9134) (angle 90) (layer Edge.Cuts) (width 0.15) (tstamp 5955997D))
  (gr_line (start 172.1358 132.9134) (end 172.1358 132.9388) (angle 90) (layer Edge.Cuts) (width 0.15) (tstamp 5955997C))
  (gr_line (start 172.1358 132.9388) (end 157.1498 132.9388) (angle 90) (layer Edge.Cuts) (width 0.15) (tstamp 5955997B))
  (gr_line (start 157.1498 132.9388) (end 157.1498 121.9406) (angle 90) (layer Edge.Cuts) (width 0.15) (tstamp 5955997A))
  (gr_line (start 157.1498 112.7252) (end 157.1498 101.727) (angle 90) (layer Edge.Cuts) (width 0.15))
  (gr_line (start 172.1358 112.7252) (end 157.1498 112.7252) (angle 90) (layer Edge.Cuts) (width 0.15))
  (gr_line (start 172.1358 112.6998) (end 172.1358 112.7252) (angle 90) (layer Edge.Cuts) (width 0.15))
  (gr_line (start 172.1358 102.7176) (end 172.1358 112.6998) (angle 90) (layer Edge.Cuts) (width 0.15))
  (gr_line (start 167.1066 102.7176) (end 172.1358 102.7176) (angle 90) (layer Edge.Cuts) (width 0.15))
  (gr_line (start 166.116 101.727) (end 167.1066 102.7176) (angle 90) (layer Edge.Cuts) (width 0.15))
  (gr_line (start 165.1508 101.727) (end 166.116 101.727) (angle 90) (layer Edge.Cuts) (width 0.15))
  (gr_line (start 164.7444 102.1334) (end 165.1508 101.727) (angle 90) (layer Edge.Cuts) (width 0.15))
  (gr_line (start 162.941 102.1334) (end 164.7444 102.1334) (angle 90) (layer Edge.Cuts) (width 0.15))
  (gr_line (start 162.5346 101.727) (end 162.941 102.1334) (angle 90) (layer Edge.Cuts) (width 0.15))
  (gr_line (start 157.1498 101.727) (end 162.5346 101.727) (angle 90) (layer Edge.Cuts) (width 0.15))
  (gr_text "PCB must be no thicker than 0.75mm" (at 157 116.0418) (layer Eco1.User)
    (effects (font (size 1.778 1.778) (thickness 0.1778)) (justify left mirror))
  )

  (segment (start 169.8371 104.02316) (end 167.16756 104.02316) (width 0.4) (layer B.Cu) (net 1))
  (segment (start 162.5346 102.362) (end 161.5 103.3966) (width 0.4) (layer B.Cu) (net 1) (tstamp 59553BA8))
  (segment (start 165.5064 102.362) (end 162.5346 102.362) (width 0.4) (layer B.Cu) (net 1) (tstamp 59553BA7))
  (segment (start 167.16756 104.02316) (end 165.5064 102.362) (width 0.4) (layer B.Cu) (net 1) (tstamp 59553BA6))
  (segment (start 161.5 103.3966) (end 161.5 103.5418) (width 0.4) (layer B.Cu) (net 1) (tstamp 59553BA9))
  (segment (start 169.8371 105.12298) (end 166.74338 105.12298) (width 0.8) (layer B.Cu) (net 2))
  (segment (start 165.1622 103.5418) (end 164.04 103.5418) (width 0.8) (layer B.Cu) (net 2) (tstamp 59553BC8))
  (segment (start 166.74338 105.12298) (end 165.1622 103.5418) (width 0.8) (layer B.Cu) (net 2) (tstamp 59553BC7))
  (segment (start 169.8371 106.2228) (end 166.4208 106.2228) (width 0.4) (layer B.Cu) (net 3))
  (segment (start 162.7814 104.8004) (end 161.5 106.0818) (width 0.4) (layer B.Cu) (net 3) (tstamp 59553DF4))
  (segment (start 164.9984 104.8004) (end 162.7814 104.8004) (width 0.4) (layer B.Cu) (net 3) (tstamp 59553DEF))
  (segment (start 166.4208 106.2228) (end 164.9984 104.8004) (width 0.4) (layer B.Cu) (net 3) (tstamp 59553DE8))
  (segment (start 170.03776 107.32516) (end 166.10076 107.32516) (width 0.8) (layer B.Cu) (net 4))
  (segment (start 166.10076 107.32516) (end 164.8574 106.0818) (width 0.8) (layer B.Cu) (net 4) (tstamp 59553C48))
  (segment (start 164.8574 106.0818) (end 164.04 106.0818) (width 0.8) (layer B.Cu) (net 4) (tstamp 59553C4C))
  (segment (start 169.8371 108.42498) (end 166.00678 108.42498) (width 0.4) (layer B.Cu) (net 5))
  (segment (start 162.7814 107.3404) (end 161.5 108.6218) (width 0.4) (layer B.Cu) (net 5) (tstamp 59553C2A))
  (segment (start 164.9222 107.3404) (end 162.7814 107.3404) (width 0.4) (layer B.Cu) (net 5) (tstamp 59553C25))
  (segment (start 166.00678 108.42498) (end 164.9222 107.3404) (width 0.4) (layer B.Cu) (net 5) (tstamp 59553C23))
  (segment (start 161.5834 108.6218) (end 161.5 108.6218) (width 0.4) (layer B.Cu) (net 5) (tstamp 59553B9E))
  (segment (start 170.03776 109.5248) (end 165.7604 109.5248) (width 0.8) (layer B.Cu) (net 6))
  (segment (start 165.7604 109.5248) (end 164.8574 108.6218) (width 0.8) (layer B.Cu) (net 6) (tstamp 59553C43))
  (segment (start 164.8574 108.6218) (end 164.04 108.6218) (width 0.8) (layer B.Cu) (net 6) (tstamp 59553C45))
  (segment (start 169.8371 110.62462) (end 165.64102 110.62462) (width 0.4) (layer B.Cu) (net 7))
  (segment (start 162.7814 109.8804) (end 161.5 111.1618) (width 0.4) (layer B.Cu) (net 7) (tstamp 59553C1D))
  (segment (start 164.8968 109.8804) (end 162.7814 109.8804) (width 0.4) (layer B.Cu) (net 7) (tstamp 59553C1B))
  (segment (start 165.64102 110.62462) (end 164.8968 109.8804) (width 0.4) (layer B.Cu) (net 7) (tstamp 59553C19))
  (segment (start 169.8371 111.72444) (end 164.60264 111.72444) (width 0.7) (layer B.Cu) (net 8))
  (segment (start 164.60264 111.72444) (end 164.04 111.1618) (width 0.7) (layer B.Cu) (net 8) (tstamp 59553B4E))
  (segment (start 164 124.2554) (end 164 123.655) (width 0.6) (layer B.Cu) (net 9))
  (segment (start 164 123.655) (end 164.6682 122.9868) (width 0.6) (layer B.Cu) (net 9) (tstamp 59559EFB))
  (segment (start 164.6682 122.9868) (end 166.4716 122.9868) (width 0.6) (layer B.Cu) (net 9) (tstamp 59559EFC))
  (segment (start 166.4716 122.9868) (end 166.878 123.3932) (width 0.6) (layer B.Cu) (net 9) (tstamp 59559EFD))
  (segment (start 166.878 123.3932) (end 167.5638 123.3932) (width 0.6) (layer B.Cu) (net 9) (tstamp 59559EFE))
  (segment (start 167.5638 123.3932) (end 168.38396 124.21336) (width 0.6) (layer B.Cu) (net 9) (tstamp 59559EFF))
  (segment (start 168.38396 124.21336) (end 169.8371 124.21336) (width 0.6) (layer B.Cu) (net 9) (tstamp 59559F00))
  (segment (start 169.8371 125.31318) (end 168.05778 125.31318) (width 0.6) (layer B.Cu) (net 10))
  (segment (start 167 124.2554) (end 166 124.2554) (width 0.6) (layer B.Cu) (net 10) (tstamp 59559EF1))
  (segment (start 168.05778 125.31318) (end 167 124.2554) (width 0.6) (layer B.Cu) (net 10) (tstamp 59559EF0))
  (segment (start 169.8371 126.413) (end 167.9076 126.413) (width 0.6) (layer B.Cu) (net 11))
  (segment (start 165.25 125.5054) (end 164 126.7554) (width 0.6) (layer B.Cu) (net 11) (tstamp 59559EED))
  (segment (start 167 125.5054) (end 165.25 125.5054) (width 0.6) (layer B.Cu) (net 11) (tstamp 59559EEC))
  (segment (start 167.9076 126.413) (end 167 125.5054) (width 0.6) (layer B.Cu) (net 11) (tstamp 59559EEB))
  (segment (start 170.03776 127.51536) (end 167.75996 127.51536) (width 0.6) (layer B.Cu) (net 12))
  (segment (start 167 126.7554) (end 166 126.7554) (width 0.6) (layer B.Cu) (net 12) (tstamp 59559EE3))
  (segment (start 167.75996 127.51536) (end 167 126.7554) (width 0.6) (layer B.Cu) (net 12) (tstamp 59559EE2))
  (segment (start 169.8371 128.61518) (end 167.60978 128.61518) (width 0.6) (layer B.Cu) (net 13))
  (segment (start 165.25 128.0054) (end 164 129.2554) (width 0.6) (layer B.Cu) (net 13) (tstamp 59559EDF))
  (segment (start 167 128.0054) (end 165.25 128.0054) (width 0.6) (layer B.Cu) (net 13) (tstamp 59559EDE))
  (segment (start 167.60978 128.61518) (end 167 128.0054) (width 0.6) (layer B.Cu) (net 13) (tstamp 59559EDD))
  (segment (start 170.03776 129.715) (end 167.434 129.715) (width 0.6) (layer B.Cu) (net 14))
  (segment (start 166.9744 129.2554) (end 166 129.2554) (width 0.6) (layer B.Cu) (net 14) (tstamp 59559F0A))
  (segment (start 167.434 129.715) (end 166.9744 129.2554) (width 0.6) (layer B.Cu) (net 14) (tstamp 59559F09))
  (segment (start 169.8371 130.81482) (end 167.05942 130.81482) (width 0.6) (layer B.Cu) (net 15))
  (segment (start 167.05942 130.81482) (end 166.75 130.5054) (width 0.6) (layer B.Cu) (net 15) (tstamp 59559EE6))
  (segment (start 165.25 130.5054) (end 164 131.7554) (width 0.6) (layer B.Cu) (net 15) (tstamp 59559ED7))
  (segment (start 166.75 130.5054) (end 165.25 130.5054) (width 0.6) (layer B.Cu) (net 15) (tstamp 59559EE9))
  (segment (start 169.8371 131.91464) (end 166.15924 131.91464) (width 0.6) (layer B.Cu) (net 16))
  (segment (start 166.15924 131.91464) (end 166 131.7554) (width 0.6) (layer B.Cu) (net 16) (tstamp 59559ED2))

)
